id,name,model_id:id,group_id:id,perm_read,perm_write,perm_create,perm_unlink
access_nearest_warehouse,access_nearest_warehouse,model_nearest_warehouse,base.group_user,1,1,1,1
access_nearest_warehouse_portal,access_nearest_warehouse_portal,model_nearest_warehouse,,1,0,0,0
access_stock_zip_range,access_stock_zip_range,model_stock_zip_range,base.group_user,1,1,1,1
access_stock_zip_range_user,access_stock_zip_range_user,model_stock_zip_range,,1,0,0,0
access_stock_state_range,access_stock_state_range,model_stock_state_range,base.group_user,1,1,1,1
